%YAML 1.1
%TAG !u! tag:unity3d.com,2011:
--- !u!1045 &1
EditorBuildSettings:
  m_ObjectHideFlags: 0
  serializedVersion: 2
  m_Scenes:
  - enabled: 1
    path: Assets/Scenes/TitlePageScreen.unity
    guid: 4ea9acd9ce0d64d428e0ae90bdc9ce56
  - enabled: 1
    path: Assets/Scenes/MainScene.unity
    guid: 8deef64a63d950b489d68f119830b71b
  m_configObjects: {}
